MATLAB is selecting SOFTWARE OPENGL rendering.

                            < M A T L A B (R) >
                  Copyright 1984-2014 The MathWorks, Inc.
                   R2014b (8.4.0.150421) 64-bit (glnxa64)
                             September 15, 2014

 
To get started, type one of these: helpwin, helpdesk, or demo.
For product information, visit www.mathworks.com.
 
[Warning: Probe definitions do not exist; must create your own] 
[> In check_add_probes at 6
  In dynaField at 34
  In field2dynaSimple at 59] 
{Error using check_start_Field_II (line 6)
Please add Field II to your Matlab path

Error in dynaField (line 37)
check_start_Field_II;

Error in field2dynaSimple (line 59)
[intensity, FIELD_PARAMS] = dynaField(FIELD_PARAMS);
} 
>>  License option : check network license only
      Date: 12/07/2016      Time: 15:44:38  

     ___________________________________________________
     |                                                 |
     |  Livermore  Software  Technology  Corporation   |
     |                                                 |
     |  7374 Las Positas Road                          |
     |  Livermore, CA 94551                            |
     |  Tel: (925) 449-2500  Fax: (925) 449-2507       |
     |  www.lstc.com                                   |
     |_________________________________________________|
     |                                                 |
     |  LS-DYNA, A Program for Nonlinear Dynamic       |
     |  Analysis of Structures in Three Dimensions     |
     |  Version : smp d R8.1.0    Date: 02/24/2016     |
     |  Revision: 105896          Time: 14:28:04       |
     |                                                 |
     |  Features enabled in this version:              |
     |    Shared Memory Parallel                       |
     |    CESE CHEMISTRY EM ICFD STOCHASTIC_PARTICLES  |
     |    FFTW (multi-dimensional FFTW Library)        |
     |    ARPACK (nonsymmetric eigensolver library)    |
     |    Interactive Graphics                         |
     |    ANSYS Database format                        |
     |    ANSYS License (ANSYS160)                     |
     |                                                 |
     |  Licensed to: Duke University - 081             |
     |  Issued by  : trent_03022016                    |
     |                                                 |
     |  Platform   : Xeon64 System                     |
     |  OS Level   : Linux 2.6.18 uo                   |
     |  Compiler   : Intel Fortran Compiler 13.1 SSE2  |
     |  Hostname   : apate                             |
     |  Precision  : Double precision (I8R8)           |
     |  SVN Version: 105897                            |
     |                                                 |
     |  Unauthorized use infringes LSTC copyrights     |
     |_________________________________________________|

 >ncpu=8 i=CEE530_qsym_pml.dyn

 Executing with LSTC network license

 Input file: CEE530_qsym_pml.dyn                                                     

 The native file format       : 64-bit small endian
 Memory size from *KEYWORD    :   200000000

 on UNIX computers note the following change:

 ctrl-c interrupts ls-dyna and prompts for a sense  switch.
 type the desired sense switch: sw1., sw2., etc. to continue
 the execution.  ls-dyna will respond as explained in the users manual

    type                      response
   -----   ------------------------------------------------------------
   quit    ls-dyna terminates.
   stop    ls-dyna terminates.
   sw1.    a restart file is written and ls-dyna terminates.
   sw2.    ls-dyna responds with time and cycle numbers.    
   sw3.    a restart file is written and ls-dyna continues calculations.
   sw4.    a plot state is written and ls-dyna continues calculations.
   sw5.    ls-dyna enters interactive graphics phase.
   swa.    ls-dyna flushes all output i/o buffers.
   lpri    toggle implicit lin. alg. solver output on/off
   nlpr    toggle implicit nonlinear solver output on/off
   iter    toggle implicit output to d3iter database on/off
   prof    output timing data to messag and continue
   conv    force implicit nonlinear convergence for current time step


 ********  notice  ********  notice  ********  notice  ********
 *                                                            *
 * This is the LS-DYNA Finite Element code.                   *
 *                                                            *
 * Neither LSTC nor the authors assume any responsibility for *
 * the validity, accuracy, or applicability of any results    *
 * obtained from this system. The user must verify his own    *
 * results.                                                   *
 *                                                            *
 * LSTC endeavors to make the LS-DYNA code as complete,       *
 * accurate and easy to use as possible.                      *
 * Suggestions and comments are welcomed.  Please report any  *
 * errors encountered in either the documentation or results  *
 * immediately to LSTC through your site focus.               *
 *                                                            *
 * Copyright (C) 1990-2016                                    *
 * by Livermore Software Technology Corp. (LSTC)              *
 * All rights reserved                                        *
 *                                                            *
 ********  notice  ********  notice  ********  notice  ********

 Beginning of keyword reader                                   12/07/16 15:44:39

 Open include file: ./nodes.dyn

 Open include file: ./elems_pml.dyn

 Open include file: ./bc.dyn
 
 *** Error 10087 (KEY+87)
     in *INCLUDE file name:
     File ./PointLoads-f10.00-a0.50.dyn does not exist
     Keyword read will continue but numerous errors may result
 
 *** Warning 10668 (KEY+668)
     no interior plane for exterior plane at x1 = 0.0000E+00
     ==> exterior plane ignored, no damping in direction +x1
 
 *** Warning 10668 (KEY+668)
     no interior plane for exterior plane at x2 = 0.0000E+00
     ==> exterior plane ignored, no damping in direction -x2
 
 *** Error 10133 (KEY+133)
     input data failed with: 1 errors

 E r r o r   t e r m i n a t i o n                             12/07/16 15:44:59

 Memory required to complete solution   :    63326681 
 Additional dynamically allocated memory:     1526938 
                                   Total:    64853619 

 T i m i n g   i n f o r m a t i o n
                        CPU(seconds)   %CPU  Clock(seconds) %Clock
  ----------------------------------------------------------------
  Keyword Processing ... 2.0635E+01   92.79     2.0148E+01   98.78
    KW Reading ......... 5.1548E+00   23.18     5.1625E+00   25.31
    KW Writing ......... 6.3172E-01    2.84     1.0686E+00    5.24
  Initialization ....... 1.6040E+00    7.21     2.4840E-01    1.22
  ----------------------------------------------------------------
  T o t a l s            2.2239E+01  100.00     2.0396E+01  100.00

 Problem time       =    0.0000E+00
 Problem cycle      =         0
 Total CPU time     =        22 seconds (   0 hours  0 minutes 22 seconds)
 CPU time per zone cycle  =         0 picoseconds
 Clock time per zone cycle=         0 picoseconds

 Number of CPU's    8
 NLQ used/max     192/  192
 Start time   12/07/2016 15:44:39  
 End time     12/07/2016 15:44:59  
 Elapsed time      20 seconds for       0 cycles using  8 SMP threads
             (      0 hour   0 minute  20 seconds)

 E r r o r   t e r m i n a t i o n                             12/07/16 15:44:59
STARTED: Wed Dec  7 15:43:27 2016
HOST: apate
872176/872176 nodes written to nodes.dyn
843750/843750 elements written to elems.dyn
Traceback (most recent call last):
  File "/var/spool/slurmd/job570522/slurm_script", line 45, in <module>
    create_disp_dat()
  File "/pisgah/aek27/GitRepos/fem/post/create_disp_dat.py", line 29, in create_dat
    nodout = open(nodout, 'r')
FileNotFoundError: [Errno 2] No such file or directory: 'nodout'
