 License option : check network license only
      Date: 12/07/2016      Time: 16:06:44  

     ___________________________________________________
     |                                                 |
     |  Livermore  Software  Technology  Corporation   |
     |                                                 |
     |  7374 Las Positas Road                          |
     |  Livermore, CA 94551                            |
     |  Tel: (925) 449-2500  Fax: (925) 449-2507       |
     |  www.lstc.com                                   |
     |_________________________________________________|
     |                                                 |
     |  LS-DYNA, A Program for Nonlinear Dynamic       |
     |  Analysis of Structures in Three Dimensions     |
     |  Version : smp d R8.1.0    Date: 02/24/2016     |
     |  Revision: 105896          Time: 14:28:04       |
     |                                                 |
     |  Features enabled in this version:              |
     |    Shared Memory Parallel                       |
     |    CESE CHEMISTRY EM ICFD STOCHASTIC_PARTICLES  |
     |    FFTW (multi-dimensional FFTW Library)        |
     |    ARPACK (nonsymmetric eigensolver library)    |
     |    Interactive Graphics                         |
     |    ANSYS Database format                        |
     |    ANSYS License (ANSYS160)                     |
     |                                                 |
     |  Licensed to: Duke University - 081             |
     |  Issued by  : trent_03022016                    |
     |                                                 |
     |  Platform   : Xeon64 System                     |
     |  OS Level   : Linux 2.6.18 uo                   |
     |  Compiler   : Intel Fortran Compiler 13.1 SSE2  |
     |  Hostname   : apate                             |
     |  Precision  : Double precision (I8R8)           |
     |  SVN Version: 105897                            |
     |                                                 |
     |  Unauthorized use infringes LSTC copyrights     |
     |_________________________________________________|

 >ncpu=8 i=CEE530_qsym_pml.dyn

 Executing with LSTC network license

 Input file: CEE530_qsym_pml.dyn                                                     

 The native file format       : 64-bit small endian
 Memory size from *KEYWORD    :   200000000

 on UNIX computers note the following change:

 ctrl-c interrupts ls-dyna and prompts for a sense  switch.
 type the desired sense switch: sw1., sw2., etc. to continue
 the execution.  ls-dyna will respond as explained in the users manual

    type                      response
   -----   ------------------------------------------------------------
   quit    ls-dyna terminates.
   stop    ls-dyna terminates.
   sw1.    a restart file is written and ls-dyna terminates.
   sw2.    ls-dyna responds with time and cycle numbers.    
   sw3.    a restart file is written and ls-dyna continues calculations.
   sw4.    a plot state is written and ls-dyna continues calculations.
   sw5.    ls-dyna enters interactive graphics phase.
   swa.    ls-dyna flushes all output i/o buffers.
   lpri    toggle implicit lin. alg. solver output on/off
   nlpr    toggle implicit nonlinear solver output on/off
   iter    toggle implicit output to d3iter database on/off
   prof    output timing data to messag and continue
   conv    force implicit nonlinear convergence for current time step


 ********  notice  ********  notice  ********  notice  ********
 *                                                            *
 * This is the LS-DYNA Finite Element code.                   *
 *                                                            *
 * Neither LSTC nor the authors assume any responsibility for *
 * the validity, accuracy, or applicability of any results    *
 * obtained from this system. The user must verify his own    *
 * results.                                                   *
 *                                                            *
 * LSTC endeavors to make the LS-DYNA code as complete,       *
 * accurate and easy to use as possible.                      *
 * Suggestions and comments are welcomed.  Please report any  *
 * errors encountered in either the documentation or results  *
 * immediately to LSTC through your site focus.               *
 *                                                            *
 * Copyright (C) 1990-2016                                    *
 * by Livermore Software Technology Corp. (LSTC)              *
 * All rights reserved                                        *
 *                                                            *
 ********  notice  ********  notice  ********  notice  ********

 Beginning of keyword reader                                   12/07/16 16:06:45

 Open include file: ./nodes.dyn

 Open include file: ./elems_pml.dyn

 Open include file: ./bc.dyn

 Open include file: ./PointLoads-f10.00-a0.50.dyn
 
 *** Warning 10668 (KEY+668)
     no interior plane for exterior plane at x1 = 0.0000E+00
     ==> exterior plane ignored, no damping in direction +x1
 
 *** Warning 10668 (KEY+668)
     no interior plane for exterior plane at x2 = 0.0000E+00
     ==> exterior plane ignored, no damping in direction -x2

 Memory required to process keyword     :    64728677 
