  File "/var/spool/slurmd/job570514/slurm_script", line 37
    os.system("matlab -r makeLoadsTempsSimple('dyna-I-f10.00-a0.50.mat','dyna-I-f10.00-a0.50.mat',1000,400,4.2,0.01^3,'q',1)')
                                                                                                                             ^
SyntaxError: EOL while scanning string literal
